30

50
-1
20
-1
24
-1
3
3
3
-2
12
-1

8
18
-1

12
87
-1

97
7

82
1
-1
13
17
8
14

37

15
7

31
1
2
3
4
5
-1
-1
-1
10
5
4
3
2
-1
1

90
15
-1
12

9
-1
2
78
-1
5
-1

11
-1
25
5
25
-3
-2
-1
11
-1
25
25
25
-3
-2
-1

41

32
23
-1
-1
5
4
9
7
6

8
-1
15
-1
12
-1
46
2
-1

26
3
3
3
3
3
3
3
3

1
2
3
4
5
6
-3
-2
-1

10
1
2
3
4
5
6
7

47
-1
96

72

18
-1

124
-1

68
-1

13
-1
64

94

98

54
1
1
1
2
1
1
1
1
1

24
-1

6
-1
11
-1
25
5
5
-3
-2
-1

59
12
13
-1
45
-1
23
-1

65
9
-1
2
9
-1
