20

9
-1

1

9
-1
5
-1
3
-1
7
1
8
9
10
8
7
3
5
-1
5
10
2
-1
9
-1
10
10
-1

10
1
6
7
-1
5
7
-1
3
-1
1
-1
1
-1
6
-1
6
5
1
2
-1

10
4
4
1
-1
7
5
4
4

10
8
9
3
10
9
5
-1
6

6
6
10
3
5
3
8
-1
8
9
4

1
-1
7
8
-1
3
6
-1
6
-1
7
-1
8
-1
8
-1
2
-1
1
5

8
1
7
-1
7
4
1
-1
2
-1
2
-1
2
10
2
8
10
2
-1
9
-1
7
-1
2
-1
2

4
-1
10
6
2
9
3
-1
8
8
4
-1
3
-1
1
3
9
-1
9
6
3
-1
10
2
-1
4
5
-1

1
3
-1
3
-1
7
2
5
3
-1
7
-1
8
6
10
2
3
-1
10
8
-1
1
-1
5
7

3
-1
7
9
-1
8
1
-1
5
-1
5
-1
10
7
5
3
-1
8
10
9
-1
7

1
1
10
2
9
1
-1
4
10

7
4

9
6
9
1
3
7
8
-1
7

6
7
5
-1
3
-1
1
3
10
-1
9
-1
2
-1
9

2
5
-1
6
3
-1
3
9
2
-1
5
-1
2
-1
9
5
-1
8
6

3
-1
9
4
4
5
-1
7

1

9
9
8
3
9
-1
4
6
3
8
6
9
6
-1
3
6
