-8 -32 -48 -40 -56 -40 -72 -72 560
-64 -16 -72 816
40 -40 -32 -80 -32 -72 -64 -72 -56 -72 -72 272
-24 24 -72 -16 -8 -80 720
-72 -16 -48 -72 752
56 -16 16 -40 -72 -72 -40 -72 -64 -48 416
-8 -80 -64 -80 -48 672
32 -72 -40 -48 -80 -56 616
-32 8 -32 -80 -24 -64 -40 -56 592
32 -24 -32 -16 856
-16 -56 904
8 -32 -8 -64 -16 -56 -72 -80 -32 -80 -72 -8 -24 336
-32 952
32 -32 -48 -72 -40 -72 648
-64 -8 -32 -16 -64 -64 -80 -72 528
-24 -16 -40 -8 -40 -64 -32 -56 -72 568
48 -16 912
24 -80 -24 -24 -64 -48 -24 -48 -48 -56 -56 -56 344
-64 -32 -64 -56 -72 -56 -24 -80 -16 -48 -24 -32 328
-72 -80 -64 -32 712
